{
    "global"               : {
        "dsn"      : "impala-virtual-prd",
        "hostname" : "sbmdeblze004.bancolombia.corp",
        "parametros_lz"       : {
            "prefijo"            : "pa_",
            "zona_procesamiento" : "proceso",
            "in_oozie"           : "resultados.reporte_flujos_oozie"
        }    
    }
}